{
  "titles": {
    "signUp": "Sign up and start using",
    "termsAndConds": "Terms and conditions",
    "privatePolicy": "Privacy Policy"
  },
  "table": {
    "titles": {
      "adminDetails": "Administrator account details",
      "termsAndConds": "Terms and conditions"
    }
  },
  "signUpForm": {
    "labels": {
      "company": {
        "name": "COMPANY NAME",
        "address": "YOUR INSLY ADDRESS",
        "profile": "COMPANY PROFILE",
        "numOfEmployees": "NUMBER OF EMPLOYEES",
        "description": "HOW WOULD YOU DESCRIBE YOURSELF?"

      },
      "administration": {
        "email": "WORK E-MAIL",
        "managerName": "ACCOUNT MANAGER NAME",
        "phone": "PHONE",
        "password": "PASSWORD"
      },
      "termsAndConds" :{
        "agreeTermsAndConds": "I agree to the terms and conditions",
        "agreePrivacyPolicy": "I agree to the privacy policy",
        "agreeGDPR": "I agree to the processing and storage of my personal data"
      }
    },
    "links": {
      "password": "suggest a secure password",
      "termsAndConds": "terms and conditions",
      "privatePolicy": "privacy policy"
    },
    "userInput": {
      "company": {
        "name": "koduj00st",
        "dropdownList": {
          "defaultOption": "--- select from here ---",
          "profile": "Insurance Company",
          "numOfEmployees": "6-10",
          "description": "I am doing something else"
        }
      },
      "administration": {
        "email": "justik@koduj00st.eu",
        "managerName": "Justik Kodus",
        "phone": "+44 (0)20 3637 2590"
      }
    }
  },
  "buttons": {
    "modalWindow": {
      "ok": "OK",
      "agree": "I agree"
    },
    "signUp": "Sign Up"
  },
  "time": {
    "disappearTime": 40000
  }
}